-------------------------------------------------------------------------------
Test set: com.age.agebackend.AgebackendApplicationTests
-------------------------------------------------------------------------------
Tests run: 1, Failures: 0, Errors: 1, Skipped: 0, Time elapsed: 1.824 s <<< FAILURE! - in com.age.agebackend.AgebackendApplicationTests
contextLoads  Time elapsed: 0.001 s  <<< ERROR!
java.lang.IllegalStateException: Failed to load ApplicationContext
Caused by: org.springframework.beans.factory.BeanCreationException: Error creating bean with name 'flywayInitializer' defined in class path resource [org/springframework/boot/autoconfigure/flyway/FlywayAutoConfiguration$FlywayConfiguration.class]: Invocation of init method failed; nested exception is org.flywaydb.core.api.FlywayException: Wrong versioned migration name format: V1_1_alter_table.sql (could not recognise version number 1_1_alter_table)
Caused by: org.flywaydb.core.api.FlywayException: Wrong versioned migration name format: V1_1_alter_table.sql (could not recognise version number 1_1_alter_table)
Caused by: org.flywaydb.core.api.FlywayException: Version may only contain 0..9 and . (dot). Invalid version: 1.1.alter.table

